Open Land Data services – stac
…
We can store the extracted values and their respective labels in the tibble derived by items_as_tibble() function:

# Convert the items document into a tibble object
glc <- items_as_tibble(glc_items)
glc$codes <- codes
glc$labels <- labels
glc

# A tibble: 26 × 8
   start_datetime end_datetime gsd   instruments constellation datetime    codes
   <chr>          <chr>        <chr> <list>      <list>        <chr>       <int>
 1 1985-01-01     1985-12-31   30    <list [1]>  <list [1]>    1985-01-01…   130
 2 1990-01-01     1990-12-31   30    <list [1]>  <list [1]>    1990-01-01…   130
 3 1995-01-01     1995-12-31   30    <list [1]>  <list [1]>    1995-01-01…   130
 4 2000-01-01     2000-12-31   30    <list [1]>  <list [1]>    2000-01-01…    10
 5 2001-01-01     2001-12-31   30    <list [1]>  <list [1]>    2001-01-01…    10
 6 2002-01-01     2002-12-31   30    <list [1]>  <list [1]>    2002-01-01…    10
 7 2003-01-01     2003-12-31   30    <list [1]>  <list [1]>    2003-01-01…    10
 8 2004-01-01     2004-12-31   30    <list [1]>  <list [1]>    2004-01-01…    10
 9 2005-01-01     2005-12-31   30    <list [1]>  <list [1]>    2005-01-01…    10
10 2006-01-01     2006-12-31   30    <list [1]>  <list [1]>    2006-01-01…    10
# ℹ 16 more rows
# ℹ 1 more variable: labels <chr>
…
