5 OpenLandMap STAC | OpenLandMap Open Land Data services
…
This only needs URL address of the COGs on some S3 storage and then longitude and
latitude of the query points (in the WGS84 system). This is an example of query of
all land cover classes from 1985 to 2022:

values <- extract_xy(-35.5, -9.0, urls)
# add date column
values$date <- as.Date(items_datetime(glc_items))
values
#> # A tibble: 26 × 2
#>     glc date      
#>   <int> <date>    
#> 1   130 1985-01-01
#> 2   130 1990-01-01
#> 3   130 1995-01-01
#> 4    10 2000-01-01
#> 5    10 2001-01-01
#> 6    10 2002-01-01
#> # ℹ 20 more rows
…
